{
	"offset": 0,
	"total": 20,
	"pageNo": 1,
	"pageSize": 10,
	"totalPage": 684,
	"totalCount": 6836,
	"rows":[
	{
		"name":"name",
		"sex":"sex",
		"content":"content"
	},{
		"name":"name",
		"sex":"sex",
		"content":"content"
	},{
		"name":"name",
		"sex":"sex",
		"content":"content"
	},{
		"name":"name",
		"sex":"sex",
		"content":"content"
	},{
		"name":"name",
		"sex":"sex",
		"content":"content"
	},{
		"name":"name",
		"sex":"sex",
		"content":"content"
	},{
		"name":"name",
		"sex":"sex",
		"content":"content"
	},{
		"name":"name",
		"sex":"sex",
		"content":"content"
	},{
		"name":"name",
		"sex":"sex",
		"content":"content"
	},{
		"name":"name",
		"sex":"sex",
		"content":"content"
	},{
		"name":"name",
		"sex":"sex",
		"content":"content"
	},{
		"name":"name",
		"sex":"sex",
		"content":"content"
	},{
		"name":"name",
		"sex":"sex",
		"content":"content"
	},{
		"name":"name",
		"sex":"sex",
		"content":"content"
	}
	],
	"hasPre": false,
	"hasNext": true,
	"prePage": 1,
	"nextPage": 2,
	"orderColumn": "UPDATE_TIME DESC"
}